基于R的SQL实验讲义 - 12 必知必会第12课：联结表
…
tbl(mydb,"Vendors") %>% 
  select(vend_name) %>% 
  cross_join(tbl(mydb,"Products") %>% 
               select(prod_name,prod_price)) %>% 
  collect()

# A tibble: 54 × 3
   vend_name     prod_name           prod_price
   <chr>         <chr>                    <dbl>
 1 Bears R Us    8 inch teddy bear         5.99
 2 Bears R Us    12 inch teddy bear        8.99
 3 Bears R Us    18 inch teddy bear       12.0 
 4 Bears R Us    Fish bean bag toy         3.49
 5 Bears R Us    Bird bean bag toy         3.49
 6 Bears R Us    Rabbit bean bag toy       3.49
 7 Bears R Us    Raggedy Ann               4.99
 8 Bears R Us    King doll                 9.49
 9 Bears R Us    Queen doll                9.49
10 Bear Emporium 8 inch teddy bear         5.99
# ℹ 44 more rows
…
